module github.com/oscarpfernandez/go-tesseract-ocr-service

go 1.13

require (
	github.com/Sirupsen/logrus v0.10.1-0.20160524132453-6d9ae300aaf8
	github.com/TwiN/g8/v2 v2.0.0 // indirect
	github.com/nu7hatch/gouuid v0.0.0-20131221200532-179d4d0c4d8d
	github.com/otiai10/gosseract v0.0.0-20160531064911-2930c0d0b0a2
	github.com/otiai10/mint v1.3.0 // indirect
	github.com/rs/cors v0.0.0-20160321231048-3ca2b550f6a4
	github.com/rs/xhandler v0.0.0-20151224012956-d9d9599b6aaf // indirect
	github.com/stretchr/testify v1.4.0 // indirect
	golang.org/x/net v0.0.0-20160531150152-c4c3ea71919d // indirect
	golang.org/x/sys v0.0.0-20191010194322-b09406accb47 // indirect
)
